{
    "artists": {
        "href": "https://api.spotify.com/v1/search?query=bad+bunny&type=artist&locale=es-419%2Ces&offset=0&limit=20",
        "items": [
            {
                "external_urls": {
                    "spotify": "https://open.spotify.com/artist/4q3ewBCX7sLwd24euuV69X"
                },
                "followers": {
                    "href": null,
                    "total": 60804941
                },
                "genres": [
                    "reggaeton",
                    "trap latino",
                    "urbano latino"
                ],
                "href": "https://api.spotify.com/v1/artists/4q3ewBCX7sLwd24euuV69X",
                "id": "4q3ewBCX7sLwd24euuV69X",
                "images": [
                    {
                        "height": 640,
                        "url": "https://i.scdn.co/image/ab6761610000e5eb8ee9a6f54dcbd4bc95126b14",
                        "width": 640
                    },
                    {
                        "height": 320,
                        "url": "https://i.scdn.co/image/ab676161000051748ee9a6f54dcbd4bc95126b14",
                        "width": 320
                    },
                    {
                        "height": 160,
                        "url": "https://i.scdn.co/image/ab6761610000f1788ee9a6f54dcbd4bc95126b14",
                        "width": 160
                    }
                ],
                "name": "Bad Bunny",
                "popularity": 99,
                "type": "artist",
                "uri": "spotify:artist:4q3ewBCX7sLwd24euuV69X"
            },
            {
                "external_urls": {
                    "spotify": "https://open.spotify.com/artist/4SsVbpTthjScTS7U2hmr1X"
                },
                "followers": {
                    "href": null,
                    "total": 9355507
                },
                "genres": [
                    "latin hip hop",
                    "reggaeton",
                    "urbano latino"
                ],
                "href": "https://api.spotify.com/v1/artists/4SsVbpTthjScTS7U2hmr1X",
                "id": "4SsVbpTthjScTS7U2hmr1X",
                "images": [
                    {
                        "height": 640,
                        "url": "https://i.scdn.co/image/ab6761610000e5ebe963e7ad5259c34a7ca54319",
                        "width": 640
                    },
                    {
                        "height": 320,
                        "url": "https://i.scdn.co/image/ab67616100005174e963e7ad5259c34a7ca54319",
                        "width": 320
                    },
                    {
                        "height": 160,
                        "url": "https://i.scdn.co/image/ab6761610000f178e963e7ad5259c34a7ca54319",
                        "width": 160
                    }
                ],
                "name": "Arcángel",
                "popularity": 85,
                "type": "artist",
                "uri": "spotify:artist:4SsVbpTthjScTS7U2hmr1X"
            },
            {
                "external_urls": {
                    "spotify": "https://open.spotify.com/artist/1vyhD5VmyZ7KMfW5gqLgo5"
                },
                "followers": {
                    "href": null,
                    "total": 36048091
                },
                "genres": [
                    "reggaeton",
                    "reggaeton colombiano",
                    "urbano latino"
                ],
                "href": "https://api.spotify.com/v1/artists/1vyhD5VmyZ7KMfW5gqLgo5",
                "id": "1vyhD5VmyZ7KMfW5gqLgo5",
                "images": [
                    {
                        "height": 640,
                        "url": "https://i.scdn.co/image/ab6761610000e5eb5d0fc400392250a750a9403e",
                        "width": 640
                    },
                    {
                        "height": 320,
                        "url": "https://i.scdn.co/image/ab676161000051745d0fc400392250a750a9403e",
                        "width": 320
                    },
                    {
                        "height": 160,
                        "url": "https://i.scdn.co/image/ab6761610000f1785d0fc400392250a750a9403e",
                        "width": 160
                    }
                ],
                "name": "J Balvin",
                "popularity": 88,
                "type": "artist",
                "uri": "spotify:artist:1vyhD5VmyZ7KMfW5gqLgo5"
            },
            {
                "external_urls": {
                    "spotify": "https://open.spotify.com/artist/329e4yvIujISKGKz1BZZbO"
                },
                "followers": {
                    "href": null,
                    "total": 14405001
                },
                "genres": [
                    "latin hip hop",
                    "reggaeton",
                    "trap latino",
                    "urbano latino"
                ],
                "href": "https://api.spotify.com/v1/artists/329e4yvIujISKGKz1BZZbO",
                "id": "329e4yvIujISKGKz1BZZbO",
                "images": [
                    {
                        "height": 640,
                        "url": "https://i.scdn.co/image/ab6761610000e5ebd086033e9cb8291e7be185df",
                        "width": 640
                    },
                    {
                        "height": 320,
                        "url": "https://i.scdn.co/image/ab67616100005174d086033e9cb8291e7be185df",
                        "width": 320
                    },
                    {
                        "height": 160,
                        "url": "https://i.scdn.co/image/ab6761610000f178d086033e9cb8291e7be185df",
                        "width": 160
                    }
                ],
                "name": "Farruko",
                "popularity": 84,
                "type": "artist",
                "uri": "spotify:artist:329e4yvIujISKGKz1BZZbO"
            },
            {
                "external_urls": {
                    "spotify": "https://open.spotify.com/artist/1UjxAZqzphB1tsMb1aWBj0"
                },
                "followers": {
                    "href": null,
                    "total": 192062
                },
                "genres": [
                    "dominican pop",
                    "rap dominicano"
                ],
                "href": "https://api.spotify.com/v1/artists/1UjxAZqzphB1tsMb1aWBj0",
                "id": "1UjxAZqzphB1tsMb1aWBj0",
                "images": [
                    {
                        "height": 640,
                        "url": "https://i.scdn.co/image/ab6761610000e5eb3f320f45c926e2cedfd9452e",
                        "width": 640
                    },
                    {
                        "height": 320,
                        "url": "https://i.scdn.co/image/ab676161000051743f320f45c926e2cedfd9452e",
                        "width": 320
                    },
                    {
                        "height": 160,
                        "url": "https://i.scdn.co/image/ab6761610000f1783f320f45c926e2cedfd9452e",
                        "width": 160
                    }
                ],
                "name": "Omega",
                "popularity": 61,
                "type": "artist",
                "uri": "spotify:artist:1UjxAZqzphB1tsMb1aWBj0"
            },
            {
                "external_urls": {
                    "spotify": "https://open.spotify.com/artist/6w9ToX5slZ4uIdmD17hJ3c"
                },
                "followers": {
                    "href": null,
                    "total": 7960348
                },
                "genres": [
                    "latin hip hop",
                    "reggaeton",
                    "reggaeton flow",
                    "trap latino",
                    "urbano latino"
                ],
                "href": "https://api.spotify.com/v1/artists/6w9ToX5slZ4uIdmD17hJ3c",
                "id": "6w9ToX5slZ4uIdmD17hJ3c",
                "images": [
                    {
                        "height": 640,
                        "url": "https://i.scdn.co/image/ab6761610000e5eb5332f98f95b18ad1ffa4e0fc",
                        "width": 640
                    },
                    {
                        "height": 320,
                        "url": "https://i.scdn.co/image/ab676161000051745332f98f95b18ad1ffa4e0fc",
                        "width": 320
                    },
                    {
                        "height": 160,
                        "url": "https://i.scdn.co/image/ab6761610000f1785332f98f95b18ad1ffa4e0fc",
                        "width": 160
                    }
                ],
                "name": "Bryant Myers",
                "popularity": 78,
                "type": "artist",
                "uri": "spotify:artist:6w9ToX5slZ4uIdmD17hJ3c"
            },
            {
                "external_urls": {
                    "spotify": "https://open.spotify.com/artist/3dJzwISoDyeRgflMly1EcE"
                },
                "followers": {
                    "href": null,
                    "total": 5587
                },
                "genres": [],
                "href": "https://api.spotify.com/v1/artists/3dJzwISoDyeRgflMly1EcE",
                "id": "3dJzwISoDyeRgflMly1EcE",
                "images": [
                    {
                        "height": 640,
                        "url": "https://i.scdn.co/image/ab6761610000e5eb1a19321f66bc0272cfc8d38d",
                        "width": 640
                    },
                    {
                        "height": 320,
                        "url": "https://i.scdn.co/image/ab676161000051741a19321f66bc0272cfc8d38d",
                        "width": 320
                    },
                    {
                        "height": 160,
                        "url": "https://i.scdn.co/image/ab6761610000f1781a19321f66bc0272cfc8d38d",
                        "width": 160
                    }
                ],
                "name": "Dead Bad Bunny",
                "popularity": 2,
                "type": "artist",
                "uri": "spotify:artist:3dJzwISoDyeRgflMly1EcE"
            },
            {
                "external_urls": {
                    "spotify": "https://open.spotify.com/artist/00XhexlJEXQstHimpZN910"
                },
                "followers": {
                    "href": null,
                    "total": 5719845
                },
                "genres": [
                    "latin hip hop",
                    "reggaeton",
                    "reggaeton flow",
                    "trap latino",
                    "urbano latino"
                ],
                "href": "https://api.spotify.com/v1/artists/00XhexlJEXQstHimpZN910",
                "id": "00XhexlJEXQstHimpZN910",
                "images": [
                    {
                        "height": 640,
                        "url": "https://i.scdn.co/image/ab6761610000e5eb42a3387336da5117fb21caee",
                        "width": 640
                    },
                    {
                        "height": 320,
                        "url": "https://i.scdn.co/image/ab6761610000517442a3387336da5117fb21caee",
                        "width": 320
                    },
                    {
                        "height": 160,
                        "url": "https://i.scdn.co/image/ab6761610000f17842a3387336da5117fb21caee",
                        "width": 160
                    }
                ],
                "name": "Brytiago",
                "popularity": 74,
                "type": "artist",
                "uri": "spotify:artist:00XhexlJEXQstHimpZN910"
            },
            {
                "external_urls": {
                    "spotify": "https://open.spotify.com/artist/4m6ubhNsdwF4psNf3R8kwR"
                },
                "followers": {
                    "href": null,
                    "total": 4658297
                },
                "genres": [
                    "argentine hip hop",
                    "trap argentino",
                    "trap latino",
                    "trap triste",
                    "urbano latino"
                ],
                "href": "https://api.spotify.com/v1/artists/4m6ubhNsdwF4psNf3R8kwR",
                "id": "4m6ubhNsdwF4psNf3R8kwR",
                "images": [
                    {
                        "height": 640,
                        "url": "https://i.scdn.co/image/ab6761610000e5eb16d81001af30e58bd1d7de4f",
                        "width": 640
                    },
                    {
                        "height": 320,
                        "url": "https://i.scdn.co/image/ab6761610000517416d81001af30e58bd1d7de4f",
                        "width": 320
                    },
                    {
                        "height": 160,
                        "url": "https://i.scdn.co/image/ab6761610000f17816d81001af30e58bd1d7de4f",
                        "width": 160
                    }
                ],
                "name": "KHEA",
                "popularity": 75,
                "type": "artist",
                "uri": "spotify:artist:4m6ubhNsdwF4psNf3R8kwR"
            },
            {
                "external_urls": {
                    "spotify": "https://open.spotify.com/artist/0thiRBGoXU2kENAMaBL8dP"
                },
                "followers": {
                    "href": null,
                    "total": 72
                },
                "genres": [],
                "href": "https://api.spotify.com/v1/artists/0thiRBGoXU2kENAMaBL8dP",
                "id": "0thiRBGoXU2kENAMaBL8dP",
                "images": [
                    {
                        "height": 640,
                        "url": "https://i.scdn.co/image/ab67616d0000b2731228f3e4eb5bf12c0aa7a640",
                        "width": 640
                    },
                    {
                        "height": 300,
                        "url": "https://i.scdn.co/image/ab67616d00001e021228f3e4eb5bf12c0aa7a640",
                        "width": 300
                    },
                    {
                        "height": 64,
                        "url": "https://i.scdn.co/image/ab67616d000048511228f3e4eb5bf12c0aa7a640",
                        "width": 64
                    }
                ],
                "name": "Mr Bad Bunny",
                "popularity": 0,
                "type": "artist",
                "uri": "spotify:artist:0thiRBGoXU2kENAMaBL8dP"
            },
            {
                "external_urls": {
                    "spotify": "https://open.spotify.com/artist/5lFhCi03HDneWzvCxGctrT"
                },
                "followers": {
                    "href": null,
                    "total": 1660595
                },
                "genres": [
                    "latin hip hop",
                    "perreo",
                    "reggaeton",
                    "reggaeton flow",
                    "trap latino",
                    "urbano latino"
                ],
                "href": "https://api.spotify.com/v1/artists/5lFhCi03HDneWzvCxGctrT",
                "id": "5lFhCi03HDneWzvCxGctrT",
                "images": [
                    {
                        "height": 640,
                        "url": "https://i.scdn.co/image/ab6761610000e5eb59f03ae6ab47594b586679c0",
                        "width": 640
                    },
                    {
                        "height": 320,
                        "url": "https://i.scdn.co/image/ab6761610000517459f03ae6ab47594b586679c0",
                        "width": 320
                    },
                    {
                        "height": 160,
                        "url": "https://i.scdn.co/image/ab6761610000f17859f03ae6ab47594b586679c0",
                        "width": 160
                    }
                ],
                "name": "Jory Boy",
                "popularity": 68,
                "type": "artist",
                "uri": "spotify:artist:5lFhCi03HDneWzvCxGctrT"
            },
            {
                "external_urls": {
                    "spotify": "https://open.spotify.com/artist/2pQAUIesBqfT87PaM1ijtk"
                },
                "followers": {
                    "href": null,
                    "total": 396527
                },
                "genres": [
                    "reggaeton",
                    "reggaeton flow",
                    "trap latino",
                    "urbano latino"
                ],
                "href": "https://api.spotify.com/v1/artists/2pQAUIesBqfT87PaM1ijtk",
                "id": "2pQAUIesBqfT87PaM1ijtk",
                "images": [
                    {
                        "height": 640,
                        "url": "https://i.scdn.co/image/ab6761610000e5eb87dcdc83d51c31a100dd0acb",
                        "width": 640
                    },
                    {
                        "height": 320,
                        "url": "https://i.scdn.co/image/ab6761610000517487dcdc83d51c31a100dd0acb",
                        "width": 320
                    },
                    {
                        "height": 160,
                        "url": "https://i.scdn.co/image/ab6761610000f17887dcdc83d51c31a100dd0acb",
                        "width": 160
                    }
                ],
                "name": "Trap Capos",
                "popularity": 62,
                "type": "artist",
                "uri": "spotify:artist:2pQAUIesBqfT87PaM1ijtk"
            },
            {
                "external_urls": {
                    "spotify": "https://open.spotify.com/artist/27Yc5RzJf27tJfqezJnHY1"
                },
                "followers": {
                    "href": null,
                    "total": 257036
                },
                "genres": [
                    "cumbia pop",
                    "cumbia villera"
                ],
                "href": "https://api.spotify.com/v1/artists/27Yc5RzJf27tJfqezJnHY1",
                "id": "27Yc5RzJf27tJfqezJnHY1",
                "images": [
                    {
                        "height": 640,
                        "url": "https://i.scdn.co/image/ab6761610000e5eb0153fa5c3b22a20904398641",
                        "width": 640
                    },
                    {
                        "height": 320,
                        "url": "https://i.scdn.co/image/ab676161000051740153fa5c3b22a20904398641",
                        "width": 320
                    },
                    {
                        "height": 160,
                        "url": "https://i.scdn.co/image/ab6761610000f1780153fa5c3b22a20904398641",
                        "width": 160
                    }
                ],
                "name": "Agapornis",
                "popularity": 56,
                "type": "artist",
                "uri": "spotify:artist:27Yc5RzJf27tJfqezJnHY1"
            },
            {
                "external_urls": {
                    "spotify": "https://open.spotify.com/artist/3JAKWLBL9jZ5Ad3KWc04eU"
                },
                "followers": {
                    "href": null,
                    "total": 17
                },
                "genres": [],
                "href": "https://api.spotify.com/v1/artists/3JAKWLBL9jZ5Ad3KWc04eU",
                "id": "3JAKWLBL9jZ5Ad3KWc04eU",
                "images": [
                    {
                        "height": 640,
                        "url": "https://i.scdn.co/image/ab67616d0000b2738e8593d7a760cf5351d4760c",
                        "width": 640
                    },
                    {
                        "height": 300,
                        "url": "https://i.scdn.co/image/ab67616d00001e028e8593d7a760cf5351d4760c",
                        "width": 300
                    },
                    {
                        "height": 64,
                        "url": "https://i.scdn.co/image/ab67616d000048518e8593d7a760cf5351d4760c",
                        "width": 64
                    }
                ],
                "name": "Bad Bunny Zombie",
                "popularity": 4,
                "type": "artist",
                "uri": "spotify:artist:3JAKWLBL9jZ5Ad3KWc04eU"
            },
            {
                "external_urls": {
                    "spotify": "https://open.spotify.com/artist/6T9RjD2s7RXsA6SxwFQpcg"
                },
                "followers": {
                    "href": null,
                    "total": 19
                },
                "genres": [],
                "href": "https://api.spotify.com/v1/artists/6T9RjD2s7RXsA6SxwFQpcg",
                "id": "6T9RjD2s7RXsA6SxwFQpcg",
                "images": [
                    {
                        "height": 640,
                        "url": "https://i.scdn.co/image/ab67616d0000b27332e687ec228e1ec27826efee",
                        "width": 640
                    },
                    {
                        "height": 300,
                        "url": "https://i.scdn.co/image/ab67616d00001e02acf5e10ddddbdceffc9f41a7",
                        "width": 300
                    },
                    {
                        "height": 64,
                        "url": "https://i.scdn.co/image/ab67616d0000485132e687ec228e1ec27826efee",
                        "width": 64
                    }
                ],
                "name": "Bad Bunny Imperio",
                "popularity": 9,
                "type": "artist",
                "uri": "spotify:artist:6T9RjD2s7RXsA6SxwFQpcg"
            },
            {
                "external_urls": {
                    "spotify": "https://open.spotify.com/artist/5nP79s99csrvcOiXTGjVfg"
                },
                "followers": {
                    "href": null,
                    "total": 473153
                },
                "genres": [
                    "indie triste"
                ],
                "href": "https://api.spotify.com/v1/artists/5nP79s99csrvcOiXTGjVfg",
                "id": "5nP79s99csrvcOiXTGjVfg",
                "images": [
                    {
                        "height": 640,
                        "url": "https://i.scdn.co/image/ab6761610000e5ebc43de3c8d5fb487b2f1bdde3",
                        "width": 640
                    },
                    {
                        "height": 320,
                        "url": "https://i.scdn.co/image/ab67616100005174c43de3c8d5fb487b2f1bdde3",
                        "width": 320
                    },
                    {
                        "height": 160,
                        "url": "https://i.scdn.co/image/ab6761610000f178c43de3c8d5fb487b2f1bdde3",
                        "width": 160
                    }
                ],
                "name": "Babi",
                "popularity": 62,
                "type": "artist",
                "uri": "spotify:artist:5nP79s99csrvcOiXTGjVfg"
            },
            {
                "external_urls": {
                    "spotify": "https://open.spotify.com/artist/4QrBoWLm2WNlPdbFhmlaUZ"
                },
                "followers": {
                    "href": null,
                    "total": 453151
                },
                "genres": [
                    "perreo",
                    "reggaeton",
                    "reggaeton flow",
                    "trap latino",
                    "urbano latino"
                ],
                "href": "https://api.spotify.com/v1/artists/4QrBoWLm2WNlPdbFhmlaUZ",
                "id": "4QrBoWLm2WNlPdbFhmlaUZ",
                "images": [
                    {
                        "height": 640,
                        "url": "https://i.scdn.co/image/ab6761610000e5ebe9f3b03885b3fb7b92395c5a",
                        "width": 640
                    },
                    {
                        "height": 320,
                        "url": "https://i.scdn.co/image/ab67616100005174e9f3b03885b3fb7b92395c5a",
                        "width": 320
                    },
                    {
                        "height": 160,
                        "url": "https://i.scdn.co/image/ab6761610000f178e9f3b03885b3fb7b92395c5a",
                        "width": 160
                    }
                ],
                "name": "KEVVO",
                "popularity": 63,
                "type": "artist",
                "uri": "spotify:artist:4QrBoWLm2WNlPdbFhmlaUZ"
            },
            {
                "external_urls": {
                    "spotify": "https://open.spotify.com/artist/3LSkCPMcNIbOscoVhky6ce"
                },
                "followers": {
                    "href": null,
                    "total": 773
                },
                "genres": [],
                "href": "https://api.spotify.com/v1/artists/3LSkCPMcNIbOscoVhky6ce",
                "id": "3LSkCPMcNIbOscoVhky6ce",
                "images": [
                    {
                        "height": 640,
                        "url": "https://i.scdn.co/image/ab67616d0000b273a67e59947fd59246c5ff3a8e",
                        "width": 640
                    },
                    {
                        "height": 300,
                        "url": "https://i.scdn.co/image/ab67616d00001e02a67e59947fd59246c5ff3a8e",
                        "width": 300
                    },
                    {
                        "height": 64,
                        "url": "https://i.scdn.co/image/ab67616d00004851a67e59947fd59246c5ff3a8e",
                        "width": 64
                    }
                ],
                "name": "Bad Bunny Trap",
                "popularity": 0,
                "type": "artist",
                "uri": "spotify:artist:3LSkCPMcNIbOscoVhky6ce"
            },
            {
                "external_urls": {
                    "spotify": "https://open.spotify.com/artist/1LCD5lfYd2aP1GtX1VJc3X"
                },
                "followers": {
                    "href": null,
                    "total": 3
                },
                "genres": [],
                "href": "https://api.spotify.com/v1/artists/1LCD5lfYd2aP1GtX1VJc3X",
                "id": "1LCD5lfYd2aP1GtX1VJc3X",
                "images": [
                    {
                        "height": 640,
                        "url": "https://i.scdn.co/image/ab67616d0000b2733449fb99a26b47c8fadf5925",
                        "width": 640
                    },
                    {
                        "height": 300,
                        "url": "https://i.scdn.co/image/ab67616d00001e023449fb99a26b47c8fadf5925",
                        "width": 300
                    },
                    {
                        "height": 64,
                        "url": "https://i.scdn.co/image/ab67616d000048513449fb99a26b47c8fadf5925",
                        "width": 64
                    }
                ],
                "name": "bunny baaby bad",
                "popularity": 0,
                "type": "artist",
                "uri": "spotify:artist:1LCD5lfYd2aP1GtX1VJc3X"
            },
            {
                "external_urls": {
                    "spotify": "https://open.spotify.com/artist/1y3Ebk2jgtnSj9WyWsDhQi"
                },
                "followers": {
                    "href": null,
                    "total": 28
                },
                "genres": [],
                "href": "https://api.spotify.com/v1/artists/1y3Ebk2jgtnSj9WyWsDhQi",
                "id": "1y3Ebk2jgtnSj9WyWsDhQi",
                "images": [],
                "name": "Bad Pepa Bunny",
                "popularity": 0,
                "type": "artist",
                "uri": "spotify:artist:1y3Ebk2jgtnSj9WyWsDhQi"
            }
        ],
        "limit": 20,
        "next": "https://api.spotify.com/v1/search?query=bad+bunny&type=artist&locale=es-419%2Ces&offset=20&limit=20",
        "offset": 0,
        "previous": null,
        "total": 40
    }
}